{
    "OS_NAME":"CentOS Linux",
    "OS_VERSION":"7 (Core)",
    "OS_ID":"centos",
    "OS_ID_LIKE":"rhel fedora",
    "OS_VERSION_ID":"7",
    "OS_PRETTY_NAME":"CentOS Linux 7 (Core)",
    "OS_ANSI_COLOR":"0;31",
    "OS_CPE_NAME":"cpe:/o:centos:centos:7",
    "OS_HOME_URL":"http://cern.ch/linux/",
    "OS_BUG_REPORT_URL":"http://cern.ch/linux/",
    "OS_CENTOS_MANTISBT_PROJECT":"CentOS-7",
    "OS_CENTOS_MANTISBT_PROJECT_VERSION":"7",
    "OS_REDHAT_SUPPORT_PRODUCT":"centos",
    "OS_REDHAT_SUPPORT_PRODUCT_VERSION":"7"
 }